{
  "changes": [
    {
      "description": "Bump bitbucket-pipes-toolkit to fix vulnerabilities.",
      "type": "minor"
    }
  ],
  "created_at": "2024-01-15T08:56:54.294248+00:00",
  "version": "1.3.0"
}